\relax 
\providecommand\hyper@newdestlabel[2]{}
\providecommand\HyperFirstAtBeginDocument{\AtBeginDocument}
\HyperFirstAtBeginDocument{\ifx\hyper@anchor\@undefined
\global\let\oldcontentsline\contentsline
\gdef\contentsline#1#2#3#4{\oldcontentsline{#1}{#2}{#3}}
\global\let\oldnewlabel\newlabel
\gdef\newlabel#1#2{\newlabelxx{#1}#2}
\gdef\newlabelxx#1#2#3#4#5#6{\oldnewlabel{#1}{{#2}{#3}}}
\AtEndDocument{\ifx\hyper@anchor\@undefined
\let\contentsline\oldcontentsline
\let\newlabel\oldnewlabel
\fi}
\fi}
\global\let\hyper@last\relax 
\gdef\HyperFirstAtBeginDocument#1{#1}
\providecommand\HyField@AuxAddToFields[1]{}
\providecommand\HyField@AuxAddToCoFields[2]{}
\providecommand \oddpage@label [2]{}
\@writefile{toc}{\@ifundefined {etoctocstyle}{\let \etoc@startlocaltoc \@gobble \let \etoc@settocdepth \@gobble \let \etoc@depthtag \@gobble \let \etoc@setlocaltop \@gobble }{}}
\@writefile{toc}{\contentsline {chapter}{\numberline {1}Hierarchical Index}{1}{chapter.1}}
\@writefile{lof}{\addvspace {10\p@ }}
\@writefile{lot}{\addvspace {10\p@ }}
\@writefile{toc}{\contentsline {section}{\numberline {1.1}Class Hierarchy}{1}{section.1.1}}
\@writefile{toc}{\contentsline {chapter}{\numberline {2}Class Index}{3}{chapter.2}}
\@writefile{lof}{\addvspace {10\p@ }}
\@writefile{lot}{\addvspace {10\p@ }}
\@writefile{toc}{\contentsline {section}{\numberline {2.1}Class List}{3}{section.2.1}}
\@writefile{toc}{\contentsline {chapter}{\numberline {3}Class Documentation}{5}{chapter.3}}
\@writefile{lof}{\addvspace {10\p@ }}
\@writefile{lot}{\addvspace {10\p@ }}
\@writefile{toc}{\contentsline {section}{\numberline {3.1}Backward Class Reference}{5}{section.3.1}}
\newlabel{classBackward}{{3.1}{5}{Backward Class Reference}{section.3.1}{}}
\newlabel{classBackward_a082e7db61f89b3f414dfa691d3568730}{{3.1}{5}{Public Member Functions}{section*.2}{}}
\newlabel{classBackward_ad17621a63bf6395922bb3d9729747ee8}{{3.1}{5}{Public Member Functions}{section*.2}{}}
\@writefile{toc}{\contentsline {section}{\numberline {3.2}Forward Class Reference}{5}{section.3.2}}
\newlabel{classForward}{{3.2}{5}{Forward Class Reference}{section.3.2}{}}
\newlabel{classForward_a2a4e706c95db885ffbce74a7660a1560}{{3.2}{6}{Public Member Functions}{section*.5}{}}
\newlabel{classForward_ad2d415497e6c5cc3e15dffdbcf956d32}{{3.2}{6}{Public Member Functions}{section*.5}{}}
\@writefile{toc}{\contentsline {section}{\numberline {3.3}Kolmogorov Class Reference}{6}{section.3.3}}
\newlabel{classKolmogorov}{{3.3}{6}{Kolmogorov Class Reference}{section.3.3}{}}
\newlabel{classKolmogorov_a48d10dd28a5afb7fd00664f32a9e3628}{{3.3}{6}{Public Member Functions}{section*.8}{}}
\newlabel{classKolmogorov_a050cc7b9f19e222796428ce61b9fbabf}{{3.3}{6}{Public Member Functions}{section*.8}{}}
\newlabel{classKolmogorov_a483671cd888efa06477acf438b1bf918}{{3.3}{6}{Public Member Functions}{section*.8}{}}
\newlabel{classKolmogorov_a41e507644ca8372ec049873d6e9e692b}{{3.3}{6}{Public Member Functions}{section*.8}{}}
\newlabel{classKolmogorov_a062c13e399fe4c5fc8dfe5507654da7d}{{3.3}{6}{Public Member Functions}{section*.8}{}}
\newlabel{classKolmogorov_a103c29ac15d7e2d3d19040c610225bf2}{{3.3}{6}{Public Member Functions}{section*.8}{}}
\newlabel{classKolmogorov_abfc6e589bd98b830be96c0eb9d533a78}{{3.3}{6}{Public Member Functions}{section*.8}{}}
\newlabel{classKolmogorov_af9f5fc5f3430486014f335699d8dfa82}{{3.3}{6}{Public Member Functions}{section*.8}{}}
\newlabel{classKolmogorov_a33dcc0ed9bb43c770f6a3b3e85743488}{{3.3}{6}{Protected Types}{section*.9}{}}
\newlabel{classKolmogorov_af0219df76962a35764fc1d48cc9e3156}{{3.3}{6}{Protected Types}{section*.9}{}}
\newlabel{classKolmogorov_a7794fdee570ad66bd4ff7cf6a961524b}{{3.3}{6}{Protected Types}{section*.9}{}}
\newlabel{classKolmogorov_a2c14dfbf9f6dd7690158769600c78681}{{3.3}{7}{Protected Attributes}{section*.10}{}}
\newlabel{classKolmogorov_a3e1ee4e54d38ea36d29d950d6c8b0bf7}{{3.3}{7}{Protected Attributes}{section*.10}{}}
\newlabel{classKolmogorov_a664703bc0172020d8492c92eb7123abc}{{3.3}{7}{Protected Attributes}{section*.10}{}}
\newlabel{classKolmogorov_aebbffce96e8bef42fc0f95f603379a18}{{3.3}{7}{Protected Attributes}{section*.10}{}}
\newlabel{classKolmogorov_a7e5d6b143ea1d3be1f9c2e9a0df586d5}{{3.3}{7}{Protected Attributes}{section*.10}{}}
\newlabel{classKolmogorov_a5149afa899be662305802da9ea2ee3b0}{{3.3}{7}{Protected Attributes}{section*.10}{}}
\newlabel{classKolmogorov_a3b21c9f8331fe1a3058bbd62e9c68670}{{3.3}{7}{Protected Attributes}{section*.10}{}}
\newlabel{classKolmogorov_a57d7d75a8efea56a584882fa101d24db}{{3.3}{7}{Protected Attributes}{section*.10}{}}
\newlabel{classKolmogorov_ae4362832a35570d012bf271396ff325f}{{3.3}{7}{Protected Attributes}{section*.10}{}}
\newlabel{classKolmogorov_a872d887f620395dc8cedb4f25880f0d0}{{3.3}{7}{Protected Attributes}{section*.10}{}}
\newlabel{classKolmogorov_a3fe863e5f5a397224032064a0277f1b7}{{3.3}{7}{Protected Attributes}{section*.10}{}}
\newlabel{classKolmogorov_a80684991183e99ca30abb421f0108ec8}{{3.3}{7}{Protected Attributes}{section*.10}{}}
\newlabel{classKolmogorov_a912724e22a29b2d6c2c9f648b1c2fdf2}{{3.3}{7}{Protected Attributes}{section*.10}{}}
\newlabel{classKolmogorov_ac1ed696551949de16d5efad0cc3b6381}{{3.3}{7}{Protected Attributes}{section*.10}{}}
\newlabel{classKolmogorov_a7772329d9bb45a072b996018a6b8dc18}{{3.3}{7}{Protected Attributes}{section*.10}{}}
\newlabel{classKolmogorov_a90741a39a1886225e8d17ea7a65a5ad3}{{3.3}{7}{Protected Attributes}{section*.10}{}}
\newlabel{classKolmogorov_a64dff62e0fd6b5b8a80326b74d795d58}{{3.3}{7}{Protected Attributes}{section*.10}{}}
\newlabel{classKolmogorov_a592ecd597c561c62a734652e7a52bc9d}{{3.3}{7}{Protected Attributes}{section*.10}{}}
\newlabel{classKolmogorov_a0092497765cd722bea1b4d7e35f3c603}{{3.3}{7}{Protected Attributes}{section*.10}{}}
\newlabel{classKolmogorov_a34c933ca2bd4e55a893b16c753474aac}{{3.3}{7}{Protected Attributes}{section*.10}{}}
\newlabel{classKolmogorov_a02c93dde0b9e1b40f01169a393b16fd4}{{3.3}{7}{Protected Attributes}{section*.10}{}}
\newlabel{classKolmogorov_adb9eba2df595c48e927915475b5ce331}{{3.3}{7}{Protected Attributes}{section*.10}{}}
\newlabel{classKolmogorov_ac382b52b4191538b3f4b8753b77da38e}{{3.3}{7}{Protected Attributes}{section*.10}{}}
\@writefile{toc}{\contentsline {chapter}{Index}{9}{section*.11}}
