\@ifundefined {etoctocstyle}{\let \etoc@startlocaltoc \@gobble \let \etoc@settocdepth \@gobble \let \etoc@depthtag \@gobble \let \etoc@setlocaltop \@gobble }{}
\contentsline {chapter}{\numberline {1}Hierarchical Index}{1}{chapter.1}
\contentsline {section}{\numberline {1.1}Class Hierarchy}{1}{section.1.1}
\contentsline {chapter}{\numberline {2}Class Index}{3}{chapter.2}
\contentsline {section}{\numberline {2.1}Class List}{3}{section.2.1}
\contentsline {chapter}{\numberline {3}Class Documentation}{5}{chapter.3}
\contentsline {section}{\numberline {3.1}Backward Class Reference}{5}{section.3.1}
\contentsline {section}{\numberline {3.2}Forward Class Reference}{5}{section.3.2}
\contentsline {section}{\numberline {3.3}Kolmogorov Class Reference}{6}{section.3.3}
\contentsline {chapter}{Index}{9}{section*.11}
