\BOOKMARK [1][-]{section.1}{Abstract}{}% 1
\BOOKMARK [1][-]{section.2}{Project Progress}{}% 2
\BOOKMARK [2][-]{subsection.2.1}{Updated Specification}{section.2}% 3
\BOOKMARK [3][-]{subsubsection.2.1.1}{Backward equation}{subsection.2.1}% 4
\BOOKMARK [3][-]{subsubsection.2.1.2}{Forward equation}{subsection.2.1}% 5
\BOOKMARK [2][-]{subsection.2.2}{Current Progress}{section.2}% 6
\BOOKMARK [3][-]{subsubsection.2.2.1}{Front End}{subsection.2.2}% 7
\BOOKMARK [3][-]{subsubsection.2.2.2}{Back End}{subsection.2.2}% 8
\BOOKMARK [1][-]{section.3}{Testing Strategy}{}% 9
\BOOKMARK [2][-]{subsection.3.1}{Front End}{section.3}% 10
\BOOKMARK [2][-]{subsection.3.2}{Back End}{section.3}% 11
\BOOKMARK [2][-]{subsection.3.3}{System Testing}{section.3}% 12
\BOOKMARK [1][-]{section.4}{Revised Schedule}{}% 13
\BOOKMARK [1][-]{section*.3}{Appendices}{}% 14
\BOOKMARK [1][-]{appendix.A}{}{}% 15
\BOOKMARK [1][-]{appendix.B}{}{}% 16
\BOOKMARK [1][-]{appendix.C}{}{}% 17
