\relax 
\@writefile{toc}{\contentsline {section}{\numberline {1}Abstract}{1}\protected@file@percent }
\@writefile{toc}{\contentsline {section}{\numberline {2}Project Progress}{1}\protected@file@percent }
\@writefile{toc}{\contentsline {subsection}{\numberline {2.1}Updated Specification}{1}\protected@file@percent }
\@writefile{toc}{\contentsline {subsubsection}{\numberline {2.1.1}Backward equation}{1}\protected@file@percent }
\newlabel{eq:1}{{1}{1}}
\@writefile{toc}{\contentsline {subsubsection}{\numberline {2.1.2}Forward equation}{1}\protected@file@percent }
\newlabel{eq:1}{{2}{1}}
\@writefile{toc}{\contentsline {subsection}{\numberline {2.2}Current Progress}{2}\protected@file@percent }
\@writefile{toc}{\contentsline {subsubsection}{\numberline {2.2.1}Front End}{2}\protected@file@percent }
\@writefile{toc}{\contentsline {subsubsection}{\numberline {2.2.2}Back End}{2}\protected@file@percent }
\@writefile{toc}{\contentsline {subsubsection}{\numberline {2.2.3}Version Control}{3}\protected@file@percent }
\@writefile{toc}{\contentsline {section}{\numberline {3}Testing Strategy}{3}\protected@file@percent }
\@writefile{toc}{\contentsline {subsection}{\numberline {3.1}Front End}{3}\protected@file@percent }
\@writefile{lof}{\contentsline {figure}{\numberline {1}{\ignorespaces Coverage Report for front end files: 100\%\relax }}{3}\protected@file@percent }
\providecommand*\caption@xref[2]{\@setref\relax\@undefined{#1}}
\newlabel{covtab}{{1}{3}}
\@writefile{toc}{\contentsline {subsection}{\numberline {3.2}Back End}{3}\protected@file@percent }
\@writefile{lof}{\contentsline {figure}{\numberline {2}{\ignorespaces Coverage Report for back end files: 100\%\relax }}{4}\protected@file@percent }
\newlabel{covtabb}{{2}{4}}
\@writefile{toc}{\contentsline {subsection}{\numberline {3.3}System Testing}{4}\protected@file@percent }
\@writefile{toc}{\contentsline {section}{\numberline {4}Revised Schedule}{4}\protected@file@percent }
\@writefile{toc}{\contentsline {section}{Appendices}{5}\protected@file@percent }
\@writefile{toc}{\contentsline {section}{\numberline {Appendix A}}{5}\protected@file@percent }
\newlabel{AppA}{{Appendix A}{5}}
\@writefile{toc}{\contentsline {section}{\numberline {Appendix B}}{5}\protected@file@percent }
\newlabel{AppB}{{Appendix B}{5}}
\@writefile{toc}{\contentsline {section}{\numberline {Appendix C}}{5}\protected@file@percent }
\newlabel{AppC}{{Appendix C}{5}}
\@writefile{toc}{\contentsline {section}{\numberline {Appendix D}}{6}\protected@file@percent }
\newlabel{AppD}{{Appendix D}{6}}
\@writefile{toc}{\contentsline {section}{\numberline {Appendix E}}{6}\protected@file@percent }
\newlabel{AppE}{{Appendix E}{6}}
\@writefile{toc}{\contentsline {section}{\numberline {Appendix F}}{6}\protected@file@percent }
\newlabel{AppF}{{Appendix F}{6}}
