\relax 
\providecommand\hyper@newdestlabel[2]{}
\providecommand\HyperFirstAtBeginDocument{\AtBeginDocument}
\HyperFirstAtBeginDocument{\ifx\hyper@anchor\@undefined
\global\let\oldcontentsline\contentsline
\gdef\contentsline#1#2#3#4{\oldcontentsline{#1}{#2}{#3}}
\global\let\oldnewlabel\newlabel
\gdef\newlabel#1#2{\newlabelxx{#1}#2}
\gdef\newlabelxx#1#2#3#4#5#6{\oldnewlabel{#1}{{#2}{#3}}}
\AtEndDocument{\ifx\hyper@anchor\@undefined
\let\contentsline\oldcontentsline
\let\newlabel\oldnewlabel
\fi}
\fi}
\global\let\hyper@last\relax 
\gdef\HyperFirstAtBeginDocument#1{#1}
\providecommand\HyField@AuxAddToFields[1]{}
\providecommand\HyField@AuxAddToCoFields[2]{}
\@writefile{toc}{\contentsline {section}{\numberline {1}Background}{1}{section.1}\protected@file@percent }
\citation{klebaner2005introduction}
\citation{allaire2007numerical}
\citation{bjork2009arbitrage}
\citation{mikosch1998elementary}
\@writefile{toc}{\contentsline {section}{\numberline {2}Project Requirements}{2}{section.2}\protected@file@percent }
\@writefile{toc}{\contentsline {subsection}{\numberline {2.1}Minimum Requirements}{2}{subsection.2.1}\protected@file@percent }
\@writefile{toc}{\contentsline {subsubsection}{\numberline {2.1.1}Stochastic partial differential equation solver (C++)}{2}{subsubsection.2.1.1}\protected@file@percent }
\@writefile{lof}{\contentsline {figure}{\numberline {1}{\ignorespaces A prototype of the output from the python program\relax }}{3}{figure.caption.3}\protected@file@percent }
\providecommand*\caption@xref[2]{\@setref\relax\@undefined{#1}}
\newlabel{fig1}{{1}{3}{A prototype of the output from the python program\relax }{figure.caption.3}{}}
\@writefile{toc}{\contentsline {subsubsection}{\numberline {2.1.2}Visualisation User Interface (Python)}{3}{subsubsection.2.1.2}\protected@file@percent }
\@writefile{toc}{\contentsline {subsection}{\numberline {2.2}Extension}{3}{subsection.2.2}\protected@file@percent }
\@writefile{lof}{\contentsline {figure}{\numberline {2}{\ignorespaces A prototype of the output from the extended python program\relax }}{3}{figure.caption.4}\protected@file@percent }
\newlabel{fig2}{{2}{3}{A prototype of the output from the extended python program\relax }{figure.caption.4}{}}
\@writefile{toc}{\contentsline {subsubsection}{\numberline {2.2.1}Calculator Transformation (Python)}{4}{subsubsection.2.2.1}\protected@file@percent }
\@writefile{toc}{\contentsline {subsubsection}{\numberline {2.2.2}Two dimensional extension (C++)}{4}{subsubsection.2.2.2}\protected@file@percent }
\@writefile{toc}{\contentsline {subsection}{\numberline {2.3}System Boundaries}{4}{subsection.2.3}\protected@file@percent }
\@writefile{toc}{\contentsline {section}{\numberline {3}Development}{4}{section.3}\protected@file@percent }
\@writefile{lof}{\contentsline {figure}{\numberline {3}{\ignorespaces A visual representation of the project\relax }}{5}{figure.caption.5}\protected@file@percent }
\newlabel{fig3}{{3}{5}{A visual representation of the project\relax }{figure.caption.5}{}}
\@writefile{toc}{\contentsline {subsection}{\numberline {3.1}Software development techniques}{5}{subsection.3.1}\protected@file@percent }
\@writefile{toc}{\contentsline {subsection}{\numberline {3.2}Version Control}{5}{subsection.3.2}\protected@file@percent }
\@writefile{toc}{\contentsline {section}{\numberline {4}Back-end (C++)}{5}{section.4}\protected@file@percent }
\@writefile{toc}{\contentsline {subsection}{\numberline {4.1}Research}{5}{subsection.4.1}\protected@file@percent }
\citation{bjork2009arbitrage}
\@writefile{toc}{\contentsline {subsection}{\numberline {4.2}Libraries}{6}{subsection.4.2}\protected@file@percent }
\@writefile{toc}{\contentsline {subsubsection}{\numberline {4.2.1}Armadillo Library}{6}{subsubsection.4.2.1}\protected@file@percent }
\@writefile{toc}{\contentsline {subsubsection}{\numberline {4.2.2}Exprtk Library}{6}{subsubsection.4.2.2}\protected@file@percent }
\@writefile{toc}{\contentsline {subsection}{\numberline {4.3}A Forward Equation Use Case: The Heat Equation}{7}{subsection.4.3}\protected@file@percent }
\@writefile{toc}{\contentsline {subsubsection}{\numberline {4.3.1}Analytical Solution}{7}{subsubsection.4.3.1}\protected@file@percent }
\@writefile{toc}{\contentsline {subsubsection}{\numberline {4.3.2}Numerical Solution}{8}{subsubsection.4.3.2}\protected@file@percent }
\@writefile{toc}{\contentsline {subsection}{\numberline {4.4}A Backward Equation Use Case: The Black Scholes Equation}{8}{subsection.4.4}\protected@file@percent }
\@writefile{toc}{\contentsline {subsection}{\numberline {4.5}Testing}{9}{subsection.4.5}\protected@file@percent }
\@writefile{lof}{\contentsline {figure}{\numberline {4}{\ignorespaces Time versus Input Size\relax }}{10}{figure.caption.6}\protected@file@percent }
\newlabel{fig4}{{4}{10}{Time versus Input Size\relax }{figure.caption.6}{}}
\@writefile{lof}{\contentsline {figure}{\numberline {5}{\ignorespaces Accuracy versus Input Size\relax }}{11}{figure.caption.7}\protected@file@percent }
\newlabel{fig5}{{5}{11}{Accuracy versus Input Size\relax }{figure.caption.7}{}}
\@writefile{toc}{\contentsline {subsection}{\numberline {4.6}Preparing for fusion}{11}{subsection.4.6}\protected@file@percent }
\@writefile{toc}{\contentsline {subsubsection}{\numberline {4.6.1}Command Line Arguments}{11}{subsubsection.4.6.1}\protected@file@percent }
\@writefile{toc}{\contentsline {subsubsection}{\numberline {4.6.2}Error Handling}{12}{subsubsection.4.6.2}\protected@file@percent }
\@writefile{toc}{\contentsline {section}{\numberline {5}Front-end (Python)}{13}{section.5}\protected@file@percent }
\@writefile{toc}{\contentsline {subsection}{\numberline {5.1}Animation}{13}{subsection.5.1}\protected@file@percent }
\@writefile{toc}{\contentsline {subsection}{\numberline {5.2}GUI}{13}{subsection.5.2}\protected@file@percent }
\@writefile{toc}{\contentsline {subsection}{\numberline {5.3}Methodology}{14}{subsection.5.3}\protected@file@percent }
\@writefile{toc}{\contentsline {subsubsection}{\numberline {5.3.1}Graph the data}{14}{subsubsection.5.3.1}\protected@file@percent }
\@writefile{toc}{\contentsline {subsubsection}{\numberline {5.3.2}Design the GUI}{16}{subsubsection.5.3.2}\protected@file@percent }
\@writefile{toc}{\contentsline {subsubsection}{\numberline {5.3.3}Testing}{19}{subsubsection.5.3.3}\protected@file@percent }
\@writefile{lof}{\contentsline {figure}{\numberline {6}{\ignorespaces Coverage Report for front end files: 100\%\relax }}{19}{figure.caption.8}\protected@file@percent }
\newlabel{covtab}{{6}{19}{Coverage Report for front end files: 100\%\relax }{figure.caption.8}{}}
\@writefile{toc}{\contentsline {section}{\numberline {6}Final Program}{20}{section.6}\protected@file@percent }
\@writefile{toc}{\contentsline {subsection}{\numberline {6.1}PyInstaller}{20}{subsection.6.1}\protected@file@percent }
\@writefile{toc}{\contentsline {subsection}{\numberline {6.2}Doxygen}{21}{subsection.6.2}\protected@file@percent }
\@writefile{toc}{\contentsline {section}{\numberline {7}Group Work}{21}{section.7}\protected@file@percent }
\@writefile{toc}{\contentsline {subsection}{\numberline {7.1}Back-end}{21}{subsection.7.1}\protected@file@percent }
\@writefile{toc}{\contentsline {subsection}{\numberline {7.2}Front-end}{21}{subsection.7.2}\protected@file@percent }
\@writefile{toc}{\contentsline {subsection}{\numberline {7.3}Schedule}{21}{subsection.7.3}\protected@file@percent }
\@writefile{toc}{\contentsline {section}{\numberline {8}Final Product}{22}{section.8}\protected@file@percent }
\@writefile{lof}{\contentsline {figure}{\numberline {7}{\ignorespaces The final product on start-up\relax }}{22}{figure.caption.9}\protected@file@percent }
\bibstyle{plain}
\bibdata{references}
\bibcite{allaire2007numerical}{1}
\bibcite{bjork2009arbitrage}{2}
\bibcite{klebaner2005introduction}{3}
\bibcite{mikosch1998elementary}{4}
\@writefile{toc}{\contentsline {section}{Appendices}{25}{section*.11}\protected@file@percent }
\@writefile{toc}{\contentsline {section}{\numberline {Appendix A}}{25}{appendix.A}\protected@file@percent }
\newlabel{AppA}{{Appendix A}{25}{}{appendix.A}{}}
\@writefile{toc}{\contentsline {section}{\numberline {Appendix B}}{25}{appendix.B}\protected@file@percent }
\newlabel{AppB}{{Appendix B}{25}{}{appendix.B}{}}
\@writefile{toc}{\contentsline {section}{\numberline {Appendix C}}{26}{appendix.C}\protected@file@percent }
\newlabel{AppC}{{Appendix C}{26}{}{appendix.C}{}}
\@writefile{toc}{\contentsline {section}{\numberline {Appendix D}}{26}{appendix.D}\protected@file@percent }
\newlabel{AppD}{{Appendix D}{26}{}{appendix.D}{}}
\gdef\minted@oldcachelist{,
  default-pyg-prefix.pygstyle,
  default.pygstyle,
  D7D1A7074A706AD620AA245A7041E671938C15273FFC38043D09768A5ACA2810.pygtex,
  15AE587E11563908F0D823C4F7B2777D938C15273FFC38043D09768A5ACA2810.pygtex,
  41A0EC7262D855C87161A9A548F51440938C15273FFC38043D09768A5ACA2810.pygtex,
  33E6A063F56C8F02399CD74FA6EC2999938C15273FFC38043D09768A5ACA2810.pygtex,
  0A61966D4837962604F43775D7AB0D237C2E7F49E087B8E8E8DF5244CE287E39.pygtex,
  9C5E99F4C8827FFA03142778107191C07C2E7F49E087B8E8E8DF5244CE287E39.pygtex,
  BA166137305BD3F646FD2F6316BC0E717C2E7F49E087B8E8E8DF5244CE287E39.pygtex,
  D7CB0044FE3B2A357B1F0976C2AC8F117C2E7F49E087B8E8E8DF5244CE287E39.pygtex,
  77ED6BA772AFD1492F8C0F0F686A69E67C2E7F49E087B8E8E8DF5244CE287E39.pygtex,
  009CDB1B98A5408CA7F61C1A00E1FD3F7C2E7F49E087B8E8E8DF5244CE287E39.pygtex,
  6B2B8F7BC978B078C22704F2A0BB37C87C2E7F49E087B8E8E8DF5244CE287E39.pygtex,
  D122E480D2FED1A8898833DF17E2FA2A7C2E7F49E087B8E8E8DF5244CE287E39.pygtex,
  CCF35631A83951D18068A2AFFC51A91D7C2E7F49E087B8E8E8DF5244CE287E39.pygtex,
  5304135F8D9D9CB3F439F5117B0342E17C2E7F49E087B8E8E8DF5244CE287E39.pygtex,
  A07D62B489E2751DAF2FEBB325B91B557C2E7F49E087B8E8E8DF5244CE287E39.pygtex,
  369DCEB125528EA960BE43D75ABEED327C2E7F49E087B8E8E8DF5244CE287E39.pygtex,
  11BC992E2941D39C310E8EAA69CC1DFC7C2E7F49E087B8E8E8DF5244CE287E39.pygtex,
  992E66587049DABA792383E4B69A66ED7C2E7F49E087B8E8E8DF5244CE287E39.pygtex,
  CF83901774519D89E4F072CBD6ECD4B37C2E7F49E087B8E8E8DF5244CE287E39.pygtex,
  0BEF67F1212AA46B475111179BE3F5557C2E7F49E087B8E8E8DF5244CE287E39.pygtex,
  EA9B977C3AE34B0AFB11F6D8FD9A4F247C2E7F49E087B8E8E8DF5244CE287E39.pygtex,
  A8E5DC6B7D772421130637B90CB19CBC7C2E7F49E087B8E8E8DF5244CE287E39.pygtex,
  03860D0EDA654E00A10531F335AFF3157C2E7F49E087B8E8E8DF5244CE287E39.pygtex,
  BD4D9CFC48A6276253C7A94E9D9229D37C2E7F49E087B8E8E8DF5244CE287E39.pygtex,
  BD4D9CFC48A6276253C7A94E9D9229D37C2E7F49E087B8E8E8DF5244CE287E39.pygtex,
  B7B7D29F97C5D8270BE6C3DB30AAA5747C2E7F49E087B8E8E8DF5244CE287E39.pygtex,
  53CD4F2CCBB2CBC1440923621BD277457C2E7F49E087B8E8E8DF5244CE287E39.pygtex,
  647B87A8706983970596633BD3881B887C2E7F49E087B8E8E8DF5244CE287E39.pygtex,
  E9F35770186F2354020753799F82371C7C2E7F49E087B8E8E8DF5244CE287E39.pygtex,
  3AD483995A20C1009CCBC14B24B379717C2E7F49E087B8E8E8DF5244CE287E39.pygtex,
  866A0F488A5C4B7471FED6D929D761147C2E7F49E087B8E8E8DF5244CE287E39.pygtex,
  D741D8B73794D29B8AC0C1F79A01B46A7C2E7F49E087B8E8E8DF5244CE287E39.pygtex,
  EBC970232F05D8715889294FDDB44B637C2E7F49E087B8E8E8DF5244CE287E39.pygtex,
  E4A8B42C31E8A928A3F20AF94F00915E7C2E7F49E087B8E8E8DF5244CE287E39.pygtex,
  47942877C01B606A1C39A215239854F27C2E7F49E087B8E8E8DF5244CE287E39.pygtex,
  D6F2D1BB79F32C77970DE4A27498EEDD7C2E7F49E087B8E8E8DF5244CE287E39.pygtex,
  9C5E99F4C8827FFA03142778107191C07C2E7F49E087B8E8E8DF5244CE287E39.pygtex,
  2AE635B937437A9BD7E61E9D15D71A8F7C2E7F49E087B8E8E8DF5244CE287E39.pygtex,
  830DAE4B937F1F4726FBF54BC20F33767C2E7F49E087B8E8E8DF5244CE287E39.pygtex,
  FDD44C42A8EB213966BB9312299B51477C2E7F49E087B8E8E8DF5244CE287E39.pygtex,
  4DBEBD4E66E79F2FBB9AABA413608DD8946033BA8BB7363DCDD207759FEA6A67.pygtex,
  294F9790F15F51833301E36551152F86946033BA8BB7363DCDD207759FEA6A67.pygtex}
\@writefile{toc}{\contentsline {section}{\numberline {Appendix E}}{27}{appendix.E}\protected@file@percent }
\newlabel{AppE}{{Appendix E}{27}{}{appendix.E}{}}
\@writefile{toc}{\contentsline {section}{\numberline {Appendix F}}{27}{appendix.F}\protected@file@percent }
\newlabel{AppF}{{Appendix F}{27}{}{appendix.F}{}}
\@writefile{toc}{\contentsline {section}{\numberline {Appendix G}}{27}{appendix.G}\protected@file@percent }
\newlabel{AppG}{{Appendix G}{27}{}{appendix.G}{}}
\@writefile{toc}{\contentsline {section}{\numberline {Appendix H}}{27}{appendix.H}\protected@file@percent }
\newlabel{AppH}{{Appendix H}{27}{}{appendix.H}{}}
