\BOOKMARK [1][-]{section.1}{Background}{}% 1
\BOOKMARK [1][-]{section.2}{Project Requirements}{}% 2
\BOOKMARK [2][-]{subsection.2.1}{Minimum Requirements}{section.2}% 3
\BOOKMARK [3][-]{subsubsection.2.1.1}{Stochastic partial differential equation solver \(C++\)}{subsection.2.1}% 4
\BOOKMARK [3][-]{subsubsection.2.1.2}{Visualisation User Interface \(Python\)}{subsection.2.1}% 5
\BOOKMARK [2][-]{subsection.2.2}{Extension}{section.2}% 6
\BOOKMARK [3][-]{subsubsection.2.2.1}{Calculator Transformation \(Python\)}{subsection.2.2}% 7
\BOOKMARK [3][-]{subsubsection.2.2.2}{Two dimensional extension \(C++\)}{subsection.2.2}% 8
\BOOKMARK [2][-]{subsection.2.3}{System Boundaries}{section.2}% 9
\BOOKMARK [1][-]{section.3}{Development}{}% 10
\BOOKMARK [2][-]{subsection.3.1}{Software development techniques}{section.3}% 11
\BOOKMARK [2][-]{subsection.3.2}{Version Control}{section.3}% 12
\BOOKMARK [1][-]{section.4}{Back-end \(C++\)}{}% 13
\BOOKMARK [2][-]{subsection.4.1}{Research}{section.4}% 14
\BOOKMARK [2][-]{subsection.4.2}{Libraries}{section.4}% 15
\BOOKMARK [3][-]{subsubsection.4.2.1}{Armadillo Library}{subsection.4.2}% 16
\BOOKMARK [3][-]{subsubsection.4.2.2}{Exprtk Library}{subsection.4.2}% 17
\BOOKMARK [2][-]{subsection.4.3}{A Forward Equation Use Case: The Heat Equation}{section.4}% 18
\BOOKMARK [3][-]{subsubsection.4.3.1}{Analytical Solution}{subsection.4.3}% 19
\BOOKMARK [3][-]{subsubsection.4.3.2}{Numerical Solution}{subsection.4.3}% 20
\BOOKMARK [2][-]{subsection.4.4}{A Backward Equation Use Case: The Black Scholes Equation}{section.4}% 21
\BOOKMARK [2][-]{subsection.4.5}{Testing}{section.4}% 22
\BOOKMARK [2][-]{subsection.4.6}{Preparing for fusion}{section.4}% 23
\BOOKMARK [3][-]{subsubsection.4.6.1}{Command Line Arguments}{subsection.4.6}% 24
\BOOKMARK [3][-]{subsubsection.4.6.2}{Error Handling}{subsection.4.6}% 25
\BOOKMARK [1][-]{section.5}{Front-end \(Python\)}{}% 26
\BOOKMARK [2][-]{subsection.5.1}{Animation}{section.5}% 27
\BOOKMARK [2][-]{subsection.5.2}{GUI}{section.5}% 28
\BOOKMARK [2][-]{subsection.5.3}{Methodology}{section.5}% 29
\BOOKMARK [3][-]{subsubsection.5.3.1}{Graph the data}{subsection.5.3}% 30
\BOOKMARK [3][-]{subsubsection.5.3.2}{Design the GUI}{subsection.5.3}% 31
\BOOKMARK [3][-]{subsubsection.5.3.3}{Testing}{subsection.5.3}% 32
\BOOKMARK [1][-]{section.6}{Final Program}{}% 33
\BOOKMARK [2][-]{subsection.6.1}{PyInstaller}{section.6}% 34
\BOOKMARK [2][-]{subsection.6.2}{Doxygen}{section.6}% 35
\BOOKMARK [1][-]{section.7}{Group Work}{}% 36
\BOOKMARK [2][-]{subsection.7.1}{Back-end}{section.7}% 37
\BOOKMARK [2][-]{subsection.7.2}{Front-end}{section.7}% 38
\BOOKMARK [2][-]{subsection.7.3}{Schedule}{section.7}% 39
\BOOKMARK [1][-]{section.8}{Final Product}{}% 40
\BOOKMARK [1][-]{section*.11}{Appendices}{}% 41
\BOOKMARK [1][-]{appendix.A}{}{}% 42
\BOOKMARK [1][-]{appendix.B}{}{}% 43
\BOOKMARK [1][-]{appendix.C}{}{}% 44
\BOOKMARK [1][-]{appendix.D}{}{}% 45
\BOOKMARK [1][-]{appendix.E}{}{}% 46
\BOOKMARK [1][-]{appendix.F}{}{}% 47
\BOOKMARK [1][-]{appendix.G}{}{}% 48
\BOOKMARK [1][-]{appendix.H}{}{}% 49
