\relax 
\@writefile{toc}{\contentsline {section}{\numberline {1}Project Specifications}{1}\protected@file@percent }
\@writefile{toc}{\contentsline {subsection}{\numberline {1.1}Abstract}{1}\protected@file@percent }
\@writefile{toc}{\contentsline {subsection}{\numberline {1.2}Background}{1}\protected@file@percent }
\newlabel{eq:1}{{1}{1}}
\@writefile{toc}{\contentsline {subsection}{\numberline {1.3}Minimum Requirements}{1}\protected@file@percent }
\citation{klebaner2005introduction}
\citation{allaire2007numerical}
\citation{bjork2009arbitrage}
\citation{mikosch1998elementary}
\@writefile{lof}{\contentsline {figure}{\numberline {1}{\ignorespaces A prototype of the output from the python program}}{2}\protected@file@percent }
\@writefile{toc}{\contentsline {subsection}{\numberline {1.4}Extensions}{2}\protected@file@percent }
\@writefile{lof}{\contentsline {figure}{\numberline {2}{\ignorespaces A prototype of the output from the extended python program}}{2}\protected@file@percent }
\@writefile{toc}{\contentsline {section}{\numberline {2}Project Requirements}{2}\protected@file@percent }
\@writefile{toc}{\contentsline {subsection}{\numberline {2.1}Stochastic partial differential equation solver (C++)}{2}\protected@file@percent }
\@writefile{toc}{\contentsline {subsection}{\numberline {2.2}Visualisation User Interface (Python)}{3}\protected@file@percent }
\@writefile{toc}{\contentsline {subsection}{\numberline {2.3}Calculator Transformation (Python)}{3}\protected@file@percent }
\@writefile{toc}{\contentsline {subsection}{\numberline {2.4}Two dimensional extension (C++)}{3}\protected@file@percent }
\@writefile{toc}{\contentsline {section}{\numberline {3}System Boundaries}{3}\protected@file@percent }
\@writefile{toc}{\contentsline {section}{\numberline {4}Version Control}{3}\protected@file@percent }
\bibstyle{plain}
\bibdata{report_one}
\bibcite{allaire2007numerical}{1}
\bibcite{bjork2009arbitrage}{2}
\bibcite{klebaner2005introduction}{3}
\bibcite{mikosch1998elementary}{4}
\@writefile{toc}{\contentsline {section}{\numberline {5}Development Strategy}{4}\protected@file@percent }
\@writefile{toc}{\contentsline {subsection}{\numberline {5.1}Milestones}{4}\protected@file@percent }
\@writefile{toc}{\contentsline {subsection}{\numberline {5.2}Strategy}{4}\protected@file@percent }
